<?xml version="1.0" encoding="UTF-8"?>
<svg width="31px" height="25px" viewBox="0 0 31 25" version="1.1" xmlns="http://www.w3.org/2000/svg" xmlns:xlink="http://www.w3.org/1999/xlink">
    <title>EF38B294-8B0F-4F4B-965B-CBAB3F265B54</title>
    <g id="desktop" stroke="none" stroke-width="1" fill="none" fill-rule="evenodd">
        <g id="services/blog" transform="translate(-1286.000000, -2055.000000)" fill="#A1A3A4">
            <path d="M1295.67667,2080 C1307.28832,2080 1313.63797,2070.38279 1313.63797,2062.04345 C1313.63797,2061.76998 1313.63246,2061.49796 1313.61989,2061.22755 C1314.85234,2060.33671 1315.92399,2059.22503 1316.76923,2057.95972 C1315.6381,2058.46207 1314.4209,2058.80053 1313.144,2058.95324 C1314.44712,2058.17197 1315.44787,2056.93586 1315.9197,2055.46205 C1314.69981,2056.18493 1313.34925,2056.71081 1311.91131,2056.99394 C1310.75957,2055.76732 1309.11883,2055 1307.30341,2055 C1303.81706,2055 1300.98963,2057.82647 1300.98963,2061.31076 C1300.98963,2061.80599 1301.04512,2062.28773 1301.15357,2062.74978 C1295.90699,2062.48604 1291.25455,2059.97458 1288.14154,2056.15574 C1287.59874,2057.08834 1287.28649,2058.17197 1287.28649,2059.32801 C1287.28649,2061.51757 1288.40106,2063.45037 1290.09568,2064.5812 C1289.06036,2064.5494 1288.08743,2064.26481 1287.23667,2063.79165 C1287.23529,2063.81794 1287.23529,2063.84452 1287.23529,2063.87226 C1287.23529,2066.92907 1289.41147,2069.48083 1292.29984,2070.05951 C1291.76961,2070.20372 1291.21163,2070.28149 1290.63565,2070.28149 C1290.22897,2070.28149 1289.83356,2070.24119 1289.44895,2070.1677 C1290.25242,2072.67503 1292.58289,2074.4997 1295.3464,2074.55119 C1293.18524,2076.24384 1290.46358,2077.25261 1287.506,2077.25261 C1286.99639,2077.25261 1286.49413,2077.22341 1286,2077.16533 C1288.79394,2078.95522 1292.11099,2080 1295.67667,2080" id="Fill-1"></path>
        </g>
    </g>
</svg>