<svg width="145px" height="41px" viewBox="0 0 145 41" version="1.1"
	 xmlns="http://www.w3.org/2000/svg" xmlns:xlink="http://www.w3.org/1999/xlink">
	<defs>
		<polygon id="path-1"
				 points="0.169661402 0.669325 8.90358874 0.669325 8.90358874 16.964365 0.169661402 16.964365"></polygon>
		<polygon id="path-3"
				 points="0.108738931 0.669325 28.2086399 0.669325 28.2086399 21.44382 0.108738931 21.44382"></polygon>
	</defs>
	<g id="desktop" stroke="none" stroke-width="1" fill="none" fill-rule="evenodd">
		<g id="homepage" transform="translate(-1130.000000, -6596.000000)">
			<g id="footer" transform="translate(80.000000, 6109.000000)">
				<g id="logo/color/lublin" transform="translate(1050.000000, 487.000000)">
					<g id="Group-15">
						<g id="Group-3" transform="translate(117.749313, 0.000000)">
							<mask id="mask-2" fill="white">
								<use xlink:href="#path-1"></use>
							</mask>
							<g id="Clip-2"></g>
							<path d="M1.86729933,14.945115 C1.86729933,16.05724 2.78881569,16.964365 3.90897003,16.964365 C5.0475547,16.964365 5.96599934,16.05724 5.96599934,14.945115 C5.96599934,13.82069 5.0475547,12.915615 3.90897003,12.915615 C2.78881569,12.915615 1.86729933,13.82069 1.86729933,14.945115 L1.86729933,14.945115 Z M6.0612227,0.668915 L6.0612227,3.479465 L0.169661402,3.479465 L0.169661402,6.277715 L8.90358874,6.277715 L8.90358874,0.668915 L6.0612227,0.668915 Z"
								  id="Fill-1" fill="#6CB644" mask="url(#mask-2)"></path>
						</g>
						<polygon id="Fill-4" fill="#D8232A"
								 points="116.680866 23.60206 116.680866 29.203685 119.520161 29.203685 119.520161 26.399285 125.412746 26.399285 125.412746 23.60206"></polygon>
						<path d="M111.101392,18.8724025 L111.101392,20.7983775 L107.619084,20.7983775 L107.619084,29.2033775 L110.462474,29.2033775 L110.462474,23.6017525 L113.942734,23.6017525 L113.942734,18.8724025 C113.942734,14.6596525 117.410707,11.2351275 121.66197,11.2351275 C125.926542,11.2351275 129.399635,14.6596525 129.399635,18.8724025 L129.399635,23.6017525 L132.866585,23.6017525 L132.866585,26.3989775 L125.413565,26.3989775 L125.413565,29.2033775 L135.718166,29.2033775 L135.718166,20.7983775 L132.23893,20.7983775 L132.23893,18.8724025 C132.23893,13.1139525 127.500288,8.4245775 121.66197,8.4245775 C115.841058,8.4245775 111.101392,13.1139525 111.101392,18.8724025"
							  id="Fill-6" fill="#D8232A"></path>
						<g id="Group-10" transform="translate(107.510243, 0.000000)">
							<mask id="mask-4" fill="white">
								<use xlink:href="#path-3"></use>
							</mask>
							<g id="Clip-9"></g>
							<path d="M25.3562395,0.66912 L25.3562395,6.27792 L21.8831467,6.27792 L21.8831467,11.004195 C21.8831467,11.25532 21.8718838,11.48492 21.8432144,11.713495 C22.7319657,12.644195 23.4548441,13.74197 23.9483673,14.931995 C24.4592969,13.720445 24.7285845,12.392045 24.7285845,11.004195 L24.7285845,9.081295 L28.2088446,9.081295 L28.2088446,0.66912 L25.3562395,0.66912 Z M14.1526483,18.63942 C9.89114711,18.63942 6.43238901,15.21797 6.43238901,11.004195 L6.43238901,6.27792 L2.95315278,6.27792 L2.95315278,3.47967 L10.4082202,3.47967 L10.421531,0.66912 L0.108738931,0.66912 L0.108738931,9.081295 L3.58285563,9.081295 L3.58285563,11.004195 C3.58285563,16.762645 8.32968882,21.44382 14.1526483,21.44382 C17.1875089,21.44382 19.9244125,20.18512 21.8432144,18.156645 C21.7408237,16.98302 21.361978,15.901645 20.7701598,14.931995 C19.4267937,17.15522 16.9632733,18.63942 14.1526483,18.63942 L14.1526483,18.63942 Z"
								  id="Fill-8" fill="#6CB644" mask="url(#mask-4)"></path>
						</g>
						<path d="M36.0932363,35.7313975 L36.0041564,39.5915475 L35.4154098,39.5915475 L35.5741154,34.8263225 L36.3574043,34.8263225 L37.7263681,38.5122225 L39.0984035,34.8263225 L39.8775968,34.8263225 L40.0363024,39.5915475 L39.4485798,39.5915475 L39.3635955,35.7313975 L38.1451461,38.9826975 L37.3168052,38.9826975 L36.0932363,35.7313975 Z M43.9363645,39.5915475 L44.5496848,39.5915475 L44.5496848,34.8263225 L43.9363645,34.8263225 L43.9363645,39.5915475 Z M52.1511709,39.5915475 L51.5337549,39.5915475 L51.1405746,38.4455975 L49.1173342,38.4455975 L48.7292735,39.5915475 L48.1108336,39.5915475 L49.7112004,34.8263225 L50.5446607,34.8263225 L52.1511709,39.5915475 Z M50.1258827,35.2711725 L49.2811594,37.9125975 L50.9757256,37.9125975 L50.1258827,35.2711725 Z M56.9092671,39.6653475 C56.4495328,39.6653475 55.9037903,39.5792475 55.4952514,39.4183225 L55.5976421,38.9150475 C56.0317787,39.0431725 56.4843456,39.1261975 56.921554,39.1261975 C57.6874365,39.1261975 57.8410225,38.9242725 57.8410225,38.3748725 C57.8410225,37.7332225 57.8410225,37.6768475 56.8570478,37.4574975 C55.7041284,37.2002225 55.5710205,36.9736975 55.5710205,35.9907225 C55.5710205,35.1614975 55.9140294,34.7555975 57.0966421,34.7555975 C57.5123483,34.7555975 58.0027998,34.8119725 58.3775498,34.9195975 L58.331474,35.4372225 C57.9516045,35.3470225 57.5062049,35.3039725 57.108929,35.3039725 C56.3317835,35.3039725 56.1874126,35.4607975 56.1874126,36.0122475 C56.1874126,36.6651725 56.1874126,36.6959225 57.1283832,36.9265475 C58.3959801,37.2453225 58.4604863,37.4328975 58.4604863,38.3666725 C58.4604863,39.1856475 58.220892,39.6653475 56.9092671,39.6653475 L56.9092671,39.6653475 Z M63.201176,35.3828975 L61.7851126,35.3828975 L61.7851126,34.8263225 L65.239775,34.8263225 L65.239775,35.3828975 L63.818592,35.3828975 L63.818592,39.5915475 L63.201176,39.5915475 L63.201176,35.3828975 Z M71.9084818,38.2190725 C71.9084818,39.0083225 71.4262216,39.6653475 70.1893418,39.6653475 C68.9627011,39.6653475 68.4702018,39.0083225 68.4702018,38.2190725 L68.4702018,36.2039225 C68.4702018,35.4064725 68.9627011,34.7545725 70.1893418,34.7545725 C71.4262216,34.7545725 71.9084818,35.4064725 71.9084818,36.2039225 L71.9084818,38.2190725 Z M69.0835222,38.2098475 C69.0835222,38.7920475 69.437794,39.1261975 70.1893418,39.1261975 C70.9419135,39.1261975 71.2992571,38.7920475 71.2992571,38.2098475 L71.2992571,36.2141725 C71.2992571,35.6340225 70.9419135,35.3039725 70.1893418,35.3039725 C69.437794,35.3039725 69.0835222,35.6340225 69.0835222,36.2141725 L69.0835222,38.2098475 Z M80.0208975,39.5915475 L80.6342179,39.5915475 L80.6342179,34.8263225 L80.0208975,34.8263225 L80.0208975,39.5915475 Z M84.9796795,35.5345975 L84.9796795,39.5925725 L84.3888851,39.5925725 L84.3888851,34.8263225 L85.2295128,34.8263225 L87.3029246,38.9109475 L87.3029246,34.8263225 L87.8926951,34.8263225 L87.8926951,39.5925725 L87.0438761,39.5925725 L84.9796795,35.5345975 Z M93.0542107,39.6653475 C92.5914047,39.6653475 92.0456622,39.5792475 91.6391711,39.4183225 L91.7384901,38.9150475 C92.1787701,39.0431725 92.6303131,39.1261975 93.0705932,39.1261975 C93.8313561,39.1261975 93.9890378,38.9242725 93.9890378,38.3748725 C93.9890378,37.7332225 93.9777748,37.6768475 93.0050631,37.4574975 C91.8531677,37.2002225 91.716988,36.9736975 91.716988,35.9907225 C91.716988,35.1614975 92.0599969,34.7555975 93.2405617,34.7555975 C93.6593397,34.7555975 94.152863,34.8119725 94.5255651,34.9195975 L94.4774415,35.4372225 C94.0996198,35.3470225 93.6521724,35.3039725 93.2559204,35.3039725 C92.4767271,35.3039725 92.3364518,35.4607975 92.3364518,36.0122475 C92.3364518,36.6651725 92.3364518,36.6959225 93.2682072,36.9265475 C94.5358042,37.2453225 94.6033821,37.4328975 94.6033821,38.3666725 C94.6033821,39.1856475 94.3658356,39.6653475 93.0542107,39.6653475 L93.0542107,39.6653475 Z M98.3928621,34.8263225 L100.109954,34.8263225 C101.140005,34.8263225 101.495301,35.2711725 101.495301,35.9958475 L101.495301,36.7010475 C101.495301,37.4492975 101.140005,37.8910725 100.109954,37.8910725 L99.0031108,37.8910725 L99.0031108,39.5915475 L98.3928621,39.5915475 L98.3928621,34.8263225 Z M100.0905,35.3828975 L99.0031108,35.3828975 L99.0031108,37.3324475 L100.0905,37.3324475 C100.680271,37.3324475 100.876861,37.1735725 100.876861,36.7010475 L100.876861,36.0132725 C100.876861,35.5335725 100.680271,35.3828975 100.0905,35.3828975 L100.0905,35.3828975 Z M105.11686,39.5915475 L105.734276,39.5915475 L105.734276,34.8263225 L105.11686,34.8263225 L105.11686,39.5915475 Z M111.478395,37.8654475 L110.319332,37.8654475 L110.319332,39.5925725 L109.699868,39.5925725 L109.699868,34.8263225 L111.512183,34.8263225 C112.533019,34.8263225 112.896506,35.2711725 112.896506,35.9968725 L112.896506,36.6918225 C112.896506,37.2514725 112.687629,37.6419975 112.134719,37.7947225 L113.377742,39.5925725 L112.668175,39.5925725 L111.478395,37.8654475 Z M111.492729,35.3828975 L110.319332,35.3828975 L110.319332,37.3252725 L111.492729,37.3252725 C112.083524,37.3252725 112.27397,37.1612725 112.27397,36.6959225 L112.27397,36.0132725 C112.27397,35.5345975 112.083524,35.3828975 111.492729,35.3828975 L111.492729,35.3828975 Z M120.630076,39.5915475 L120.003445,39.5915475 L119.608217,38.4455975 L117.593168,38.4455975 L117.206131,39.5915475 L116.581547,39.5915475 L118.190105,34.8263225 L119.022542,34.8263225 L120.630076,39.5915475 Z M118.601716,35.2711725 L117.753921,37.9125975 L119.453607,37.9125975 L118.601716,35.2711725 Z M124.606931,38.2272725 C124.606931,38.8873725 124.858812,39.1077475 125.642101,39.1077475 C125.931867,39.1077475 126.388529,39.0728975 126.75816,39.0052475 L126.815499,39.5300475 C126.476585,39.6130725 125.976919,39.6653475 125.616503,39.6653475 C124.455393,39.6653475 123.988491,39.1600225 123.988491,38.2621225 L123.988491,36.1659975 C123.988491,35.2578475 124.455393,34.7555975 125.616503,34.7555975 C125.976919,34.7555975 126.476585,34.8109475 126.815499,34.8939725 L126.75816,35.4156975 C126.388529,35.3470225 125.931867,35.3131975 125.642101,35.3131975 C124.858812,35.3131975 124.606931,35.5304975 124.606931,36.2008475 L124.606931,38.2272725 Z M131.114884,34.8263225 L131.114884,39.6140975 C131.114884,40.1706725 131.036044,40.2424225 130.209751,40.9998975 L129.827833,40.5714475 C130.481086,39.9400475 130.497468,39.9205725 130.497468,39.5915475 L130.497468,34.8263225 L131.114884,34.8263225 Z M135.073309,39.5915475 L135.691749,39.5915475 L135.691749,34.8263225 L135.073309,34.8263225 L135.073309,39.5915475 Z"
							  id="Fill-11" fill="#060403"></path>
						<path d="M43.3110644,1.976405 C42.830852,1.22918 41.9451724,0.78228 41.0011301,0.70643 C40.5772325,0.668505 40.1553828,0.71053 39.7325092,0.818155 C38.3614976,1.193305 37.4031206,2.374105 36.946458,3.706605 C36.7723938,4.196555 36.6577162,4.63833 36.572732,4.96428 C31.9671979,4.51328 29.9572684,4.215005 23.1841231,4.46203 C16.5594443,4.70393 9.63271296,5.092405 6.41969257,4.817705 C4.49167555,4.66293 2.39368996,4.227305 1.52644066,3.878805 L1.17831226,3.71583 C0.954076611,3.620505 0.783084129,3.53953 0.630521976,3.528255 C0.451338238,3.507755 0.297752177,3.563105 0.160548629,3.85728 C0.0315363379,4.159655 -0.199866661,4.47023 0.346899716,4.80028 C0.890594372,5.129305 2.9363607,5.932905 5.7582486,6.12458 C14.777846,6.73343 19.8441382,6.047705 26.578375,6.19633 C31.8289705,6.31728 36.2225557,6.996855 36.2225557,6.996855 C36.2225557,6.996855 35.5262989,11.16143 35.4576972,15.32498 C35.3553065,21.758905 35.9788659,26.35808 36.2491773,27.388205 C36.528704,28.48393 36.6331425,28.75043 36.9218843,28.907255 C37.2096022,29.056905 37.5679696,29.15633 37.9212176,29.18503 C38.4260038,29.220905 38.9236226,29.11738 39.21646,28.804755 C39.3608309,28.68893 39.4826759,28.560805 39.5758514,28.386555 C39.7437722,28.124155 39.757083,27.855605 39.7079354,27.716205 C38.3492107,23.618255 37.982652,20.055355 37.9212176,17.343205 C37.8536397,14.67103 38.1229273,10.059555 38.5929006,7.181355 C39.5553733,7.181355 40.8280898,7.03888 41.9851047,6.406455 C43.9039066,5.37223 43.9940104,3.03318 43.3110644,1.976405 M41.2417482,4.417955 C40.9048828,4.80028 40.0243227,5.19183 38.9092879,5.11393 C39.2594641,3.532355 39.9424101,2.605755 40.8639265,2.679555 C41.6144504,2.749255 42.05985,3.51083 41.2417482,4.417955 M81.9707238,3.32428 C81.4956309,2.583205 80.6191664,2.126055 79.664885,2.046105 C79.2430353,2.01433 78.8140183,2.04918 78.3942164,2.169105 C77.0293482,2.54323 76.0689234,3.71583 75.610213,5.04833 C75.4443401,5.54853 75.3214712,5.97903 75.2323913,6.30498 C70.8418778,5.87448 68.9425302,5.598755 63.9376724,5.830405 C64.5172038,3.694305 65.1673848,3.02293 65.4745569,2.43048 C65.8380439,1.74168 64.8796669,0.93603 63.8875009,0.96268 C63.0898773,0.986255 62.7714422,1.349105 62.5482305,1.65353 C62.3076123,1.99178 61.89293,2.86098 61.4721042,4.946855 C61.4168132,5.21643 61.3512831,5.56493 61.2816574,5.975955 C57.0938775,6.226055 55.2713229,6.398255 52.449435,6.16968 C50.5255136,6.00773 48.4326476,5.56903 47.5694939,5.21643 L47.2070308,5.06883 C46.9879147,4.96428 46.8097549,4.88843 46.6643601,4.873055 C46.4913198,4.85768 46.3377337,4.875105 46.2005302,5.196955 C46.0612788,5.533155 45.8329475,5.822205 46.3827856,6.14508 C46.9213607,6.47308 48.9814618,7.20493 51.7818476,7.472455 C55.6737184,7.84453 57.8904772,7.743055 61.0185133,7.68463 C60.5843767,10.76373 60.1328337,15.55868 60.4400058,20.58938 C60.7174847,25.08708 61.2785857,27.746955 62.4089791,28.68893 C62.9700802,29.16043 64.6277858,29.70778 66.5056313,28.628455 C72.9562459,25.381255 70.8736189,15.70218 64.3410918,15.832355 C63.9581505,15.840555 63.2537025,15.965605 62.8410679,16.03428 C62.9270761,12.226405 63.1943159,9.561405 63.534253,7.656955 C64.3861437,7.656955 65.3076601,7.66413 66.3520453,7.68668 C71.6005929,7.81378 74.8863107,8.34268 74.8863107,8.34268 C74.8863107,8.34268 74.1818627,12.497005 74.1982452,16.664655 C74.2084842,23.130355 74.7368203,26.426755 74.9948449,27.468155 C75.2866584,28.56798 75.3501406,28.76273 75.6552649,28.90008 C76.8358298,29.41873 77.6303817,29.153255 77.9273147,28.84268 C78.5662327,28.33633 78.5109418,27.781805 78.4648659,27.65163 C77.4767956,24.860555 76.8163756,21.16338 76.6996502,18.384605 C76.5859965,15.715505 76.7877062,11.398205 77.2515361,8.52718 C78.2252717,8.53128 79.4897969,8.38368 80.6509076,7.755355 C82.563566,6.71498 82.6577654,4.381055 81.9707238,3.32428 M64.0861389,18.04533 C64.3953589,18.04533 64.7056027,18.09043 65.0025358,18.19703 C66.2639893,18.657255 67.3124701,19.811405 67.5756142,21.152105 C67.9943922,23.245155 67.1322625,26.03008 64.9789859,26.36423 C64.515156,26.43598 63.9991068,26.45853 63.7758951,25.71848 C63.5311813,24.78778 63.0898773,22.45078 62.950626,18.175505 C63.2659894,18.10273 63.7717995,18.04533 64.0861389,18.04533 M79.9157423,5.752505 C79.5604465,6.14508 78.6911494,6.533555 77.5730429,6.449505 C77.9170757,4.875105 78.6092368,3.950555 79.5317771,4.036655 C80.2782054,4.09508 80.7205332,4.85768 79.9157423,5.752505 M84.2857777,14.846305 C85.2697524,14.846305 86.0694238,14.04373 86.0694238,13.04743 C86.0694238,12.056255 85.2697524,11.26393 84.2857777,11.26393 C83.2956595,11.26393 82.5000837,12.056255 82.5000837,13.04743 C82.5000837,14.04373 83.2956595,14.846305 84.2857777,14.846305 M101.685031,26.74553 C101.269324,26.56308 100.573067,26.760905 100.474772,25.71848 C100.290469,23.88578 100.826996,22.30318 100.330401,19.770405 C99.99456,18.06788 98.3440218,17.257105 97.0846161,17.04493 C96.2665143,16.912705 94.9272439,16.892205 93.5029891,17.97973 C93.5029891,17.97973 93.3104946,17.257105 92.6080943,16.992655 C91.8227576,16.70668 90.4322918,17.50823 89.8650473,17.85263 C89.2476313,18.220605 89.3315917,19.20563 89.9254578,19.432155 C90.3503793,19.581805 90.2449168,19.55823 90.6462884,19.68123 C91.1172857,19.84318 91.1551702,19.96208 91.04766,21.38478 C90.7435596,25.348455 90.8756436,25.666205 90.7660855,28.38143 C90.7435596,28.960555 90.8848587,29.18913 91.3128519,29.18913 C91.730606,29.18913 92.3756674,29.192205 93.008442,29.192205 C93.4988935,29.192205 93.4456503,28.74838 93.4261961,28.41013 C93.3657856,26.943355 93.3422357,24.90053 93.3872876,23.321005 C93.4016223,22.706005 93.4261961,22.076655 93.4589611,21.299705 C93.4947979,20.936855 93.6197145,20.815905 93.9156237,20.58733 C94.2770629,20.27778 94.6364543,20.024605 95.0859495,19.811405 C95.7002937,19.50493 98.2948742,18.81203 98.1074992,22.68243 C97.9702957,25.37818 97.8935027,27.021255 98.4023845,28.20923 C98.8324254,29.20758 99.6167383,29.20758 100.043708,29.20758 C101.065567,29.20758 101.442365,28.99848 101.801756,28.163105 C102.126335,27.40768 102.087426,26.929005 101.685031,26.74553 M55.7249138,26.69633 C55.4494828,26.629705 54.9016925,26.60818 54.7501542,26.068005 C54.5822335,25.16088 54.5945204,24.18098 54.6989589,22.058205 C54.7583455,20.867155 54.9477683,19.089805 55.0245613,18.49428 C55.0849718,18.070955 55.1566453,17.388305 54.4286474,17.388305 C54.0405866,17.388305 53.6760757,17.38113 53.2265805,17.38113 C52.7740136,17.38113 52.3961919,17.566655 52.2661557,18.417405 C52.2661557,18.417405 51.8053975,22.326755 52.0572786,25.13833 C52.119737,25.73488 52.0101789,26.002405 51.4122172,26.416505 C50.5941154,26.98333 47.4077166,27.93043 47.4200035,23.97803 C47.4271708,22.49588 47.7394625,20.60578 47.7394625,18.571155 C47.7394625,17.74193 47.4722228,17.273505 46.8097549,16.992655 C46.0469441,16.66568 44.5182508,17.615855 44.0708035,17.85263 C43.4390528,18.212405 43.536324,19.20563 44.1322379,19.432155 C44.5551115,19.581805 44.4476013,19.55823 44.8530685,19.68123 C45.3179223,19.84318 45.3967631,19.97643 45.2452249,21.38478 C45.1479537,22.269355 45.0803758,23.259505 45.0435152,23.585455 C44.96877,24.24248 44.8295186,25.77998 45.1919817,26.890055 C45.7438676,28.538255 47.1066879,29.25063 48.3671175,29.45768 C49.4647459,29.637055 51.2473681,29.348005 52.4914152,28.546455 C52.6450013,28.439855 52.6327144,28.446005 52.7074596,28.398855 C53.0648032,29.003605 53.375047,29.204505 54.444006,29.204505 C55.2293427,29.204505 55.7034117,28.962605 56.0597314,28.07188 C56.239939,27.62293 56.4436965,26.87263 55.7249138,26.69633 M86.3469026,26.74553 C85.9588418,26.56923 85.3209477,26.742455 85.163266,25.906055 C85.0588275,25.356655 85.1202619,24.026205 85.163266,23.068855 C85.2328917,21.758905 85.4243623,20.21013 85.4315297,18.571155 C85.4315297,17.74193 85.163266,17.273505 84.5059177,16.992655 C83.7379874,16.66568 82.2051985,17.615855 81.7597989,17.85263 C81.1300961,18.212405 81.2253194,19.20563 81.8273768,19.432155 C82.2461548,19.581805 82.1396684,19.55823 82.5441117,19.68123 C83.015109,19.84318 83.0929259,19.97643 82.9434355,21.38478 C82.871762,22.02848 82.6946261,23.84068 82.6895065,24.466955 C82.6895065,25.08708 82.6393351,27.121705 83.0642565,28.20923 C83.4461739,29.20758 84.2356062,29.20758 84.6820297,29.20758 C85.7090085,29.20758 86.1103801,28.99848 86.4646519,28.163105 C86.6428117,27.75003 86.683768,27.54298 86.6704572,27.244705 C86.6591943,27.041755 86.5803534,26.86238 86.3469026,26.74553"
							  id="Fill-13" fill="#060403"></path>
					</g>
					<path d="M142.001684,1.44099495 C143.41662,1.44099495 144.56429,2.585562 144.56429,4.00056106 C144.56429,5.414438 143.41662,6.56012717 142.001684,6.56012717 C140.585626,6.56012717 139.440202,5.414438 139.440202,4.00056106 C139.440202,2.585562 140.585626,1.44099495 142.001684,1.44099495 L142.001684,1.44099495 Z M145,4.11165139 L145,3.88834861 C144.941606,2.28371049 143.622122,1 142.001684,1 C140.343066,1 139,2.34430522 139,4.00056106 C139,5.65793903 140.343066,7 142.001684,7 C143.622122,7 144.941606,5.71853376 145,4.11165139 L145,4.11165139 Z M142.82594,3.10622779 L142.82594,3.62801571 C142.827063,3.74471666 142.810219,3.84009725 142.770915,3.90742472 C142.730488,3.97811857 142.669848,4.0297363 142.58338,4.05891154 C142.493543,4.09033103 142.376755,4.10604077 142.228523,4.10604077 L141.332398,4.10604077 L141.332398,2.62932486 L142.228523,2.62932486 C142.376755,2.62932486 142.493543,2.64166823 142.58338,2.67308771 C142.669848,2.70338508 142.730488,2.75275856 142.770915,2.8234524 C142.810219,2.89302413 142.827063,2.98728259 142.82594,3.10622779 L142.82594,3.10622779 Z M143.119034,5.82737984 L143.658057,5.82737984 L142.718136,4.46512063 C142.858506,4.42360202 142.968557,4.36412942 143.053902,4.2855807 C143.139248,4.21039835 143.199888,4.11501777 143.236946,4.00504956 C143.275126,3.89171498 143.294217,3.76379278 143.294217,3.62128296 L143.294217,3.10173929 C143.29534,2.91546662 143.262774,2.75612493 143.194273,2.62371423 C143.128018,2.49018141 143.015722,2.39031232 142.862998,2.3162521 C142.709152,2.24668038 142.502527,2.2107724 142.244245,2.2107724 L140.865244,2.2107724 L140.865244,5.82737984 L141.332398,5.82737984 L141.332398,4.51786048 L142.218417,4.51786048 L143.119034,5.82737984 Z"
						  id="Fill-16" fill="#1A1919"></path>
				</g>
			</g>
		</g>
	</g>
</svg>
